%YAML 1.1
%TAG !u! tag:unity3d.com,2011:
--- !u!21 &2100000
Material:
  serializedVersion: 6
  m_ObjectHideFlags: 0
  m_CorrespondingSourceObject: {fileID: 0}
  m_PrefabInstance: {fileID: 0}
  m_PrefabAsset: {fileID: 0}
  m_Name: Shader Graphs_Lazer
  m_Shader: {fileID: -6465566751694194690, guid: e52c07c3defb41d48ad1afe9ad3d7299,
    type: 3}
  m_ShaderKeywords: 
  m_LightmapFlags: 4
  m_EnableInstancingVariants: 0
  m_DoubleSidedGI: 0
  m_CustomRenderQueue: -1
  stringTagMap: {}
  disabledShaderPasses: []
  m_SavedProperties:
    serializedVersion: 3
    m_TexEnvs:
    - Texture2D_C85AFB32:
        m_Texture: {fileID: 2800000, guid: ce2b211e78551484f83266b9cfbd0411, type: 3}
        m_Scale: {x: 1, y: 1}
        m_Offset: {x: 0, y: 0}
    - Texture2D_DEECA11:
        m_Texture: {fileID: 2800000, guid: d334a11673b61674485800d046f29012, type: 3}
        m_Scale: {x: 1, y: 1}
        m_Offset: {x: 0, y: 0}
    m_Floats:
    - Vector1_1AA01085: 0.15
    - Vector1_23D991C5: 0.1
    - Vector1_5017BC93: 25
    - Vector1_ADD6F539: 2
    m_Colors:
    - Color_A9ACDEBC: {r: 4, g: 4, b: 4, a: 1}
    - Vector2_1222E033: {r: -0.5, g: 0, b: 0, a: 0}
    - Vector2_25475A40: {r: -0.7, g: 0, b: 0, a: 0}
